module flapserver

go 1.19

require (
	github.com/golang/protobuf v1.5.2
	github.com/jhillyerd/enmime v0.10.1
	github.com/siebenmann/smtpd v0.0.0-20170816215504-b93303610bbe
)

require (
	github.com/cention-sany/utf7 v0.0.0-20170124080048-26cad61bd60a // indirect
	github.com/gogs/chardet v0.0.0-20191104214054-4b6791f73a28 // indirect
	github.com/jaytaylor/html2text v0.0.0-20200412013138-3577fbdbcff7 // indirect
	github.com/mattn/go-runewidth v0.0.12 // indirect
	github.com/olekukonko/tablewriter v0.0.5 // indirect
	github.com/pkg/errors v0.9.1 // indirect
	github.com/rivo/uniseg v0.2.0 // indirect
	github.com/ssor/bom v0.0.0-20170718123548-6386211fdfcf // indirect
	golang.org/x/net v0.0.0-20210501142056-aec3718b3fa0 // indirect
	golang.org/x/text v0.3.6 // indirect
	google.golang.org/protobuf v1.26.0 // indirect
)
